module bitbucket.org/cam-per/picker

go 1.13

require (
	github.com/Ernyoke/Imger v0.0.0-20180625211505-6476f04d1954
	github.com/anthonynsimon/bild v0.11.1
	github.com/bwmarrin/discordgo v0.20.2
	github.com/cpuguy83/go-md2man/v2 v2.0.0 // indirect
	github.com/daviddengcn/go-colortext v0.0.0-20180409174941-186a3d44e920
	github.com/golangplus/bytes v0.0.0-20160111154220-45c989fe5450 // indirect
	github.com/golangplus/fmt v0.0.0-20150411045040-2a5d6d7d2995 // indirect
	github.com/golangplus/testing v0.0.0-20180327235837-af21d9c3145e // indirect
	github.com/therfoo/therfoo v0.0.0-20190316081342-2c46ed6ed408
	github.com/urfave/cli v1.22.2
)
