{
    "session":{
        "login": "",
        "password": ""
    },
    "ocr":{
        "file": "ocr.gob",
        "epochs": 10000,
        "width": 24,
        "height": 36,
        "layers":[
            {
                "size": 32, 
                "type": "relu"
            }
        ],
        "out_layer": {
            "size": 16,
            "type": "sigmoid"
        }
    },
    "bot": {
        "guild_id": "319073776383819776",
        "drop_bot": "537168590819033088",
        "channels": [
            "389413733329272837",
            "389792062146347020"
        ],
        "delays":{
            "pick":{
                "delay":5000,
                "eps":500
            }
        }
    }
}